{
  "urn" : "local:ehsanpashanejad:im.aries.training.na:lastmtn",
  "version" : "0.0.1",
  "adapterType" : "vector",
  "localPath" : "im.aries.training.na/resources/lastmtn.v0.0.1",
  "geometry" : "#s2(1){bbox=[418396.0242999997 540451.6767999997 5611213.277899999 5723550.5655],proj=EPSG:32613}",
  "projectName" : "im.aries.training.na",
  "localName" : "lastmtn.shp",
  "type" : "OBJECT",
  "resourceTimestamp" : 1629504455693,
  "metadata" : {
    "im:keywords" : "features,lastmtn",
    "dc:title" : "lastmtn"
  },
  "parameters" : { },
  "localPaths" : [ "im.aries.training.na/resources/lastmtn.v0.0.1/lastmtn.shx", "im.aries.training.na/resources/lastmtn.v0.0.1/lastmtn.shp.xml", "im.aries.training.na/resources/lastmtn.v0.0.1/lastmtn.sbx", "im.aries.training.na/resources/lastmtn.v0.0.1/lastmtn.prj", "im.aries.training.na/resources/lastmtn.v0.0.1/lastmtn.dbf", "im.aries.training.na/resources/lastmtn.v0.0.1/lastmtn.shp" ],
  "history" : [ ],
  "notifications" : [ ],
  "attributes" : [ {
    "name" : "OBJECTID",
    "type" : "NUMBER",
    "key" : false,
    "optional" : true,
    "exampleValue" : null,
    "index" : 0
  }, {
    "name" : "PROVCD_1",
    "type" : "TEXT",
    "key" : false,
    "optional" : true,
    "exampleValue" : null,
    "index" : 0
  }, {
    "name" : "PROVCD_2",
    "type" : "TEXT",
    "key" : false,
    "optional" : true,
    "exampleValue" : null,
    "index" : 0
  }, {
    "name" : "PROVCD_3",
    "type" : "TEXT",
    "key" : false,
    "optional" : true,
    "exampleValue" : null,
    "index" : 0
  }, {
    "name" : "PROVCD_4",
    "type" : "TEXT",
    "key" : false,
    "optional" : true,
    "exampleValue" : null,
    "index" : 0
  }, {
    "name" : "VALDATE",
    "type" : "TEXT",
    "key" : false,
    "optional" : true,
    "exampleValue" : null,
    "index" : 0
  }, {
    "name" : "EDITION",
    "type" : "TEXT",
    "key" : false,
    "optional" : true,
    "exampleValue" : null,
    "index" : 0
  }, {
    "name" : "DATASETNAM",
    "type" : "TEXT",
    "key" : false,
    "optional" : true,
    "exampleValue" : null,
    "index" : 0
  }, {
    "name" : "VERSION",
    "type" : "TEXT",
    "key" : false,
    "optional" : true,
    "exampleValue" : null,
    "index" : 0
  }, {
    "name" : "COMPLEVEL",
    "type" : "TEXT",
    "key" : false,
    "optional" : true,
    "exampleValue" : null,
    "index" : 0
  }, {
    "name" : "WSCMDA",
    "type" : "TEXT",
    "key" : false,
    "optional" : true,
    "exampleValue" : null,
    "index" : 0
  }, {
    "name" : "WSCSDA",
    "type" : "TEXT",
    "key" : false,
    "optional" : true,
    "exampleValue" : null,
    "index" : 0
  }, {
    "name" : "WSCSSDA",
    "type" : "TEXT",
    "key" : false,
    "optional" : true,
    "exampleValue" : null,
    "index" : 0
  }, {
    "name" : "FDA",
    "type" : "TEXT",
    "key" : false,
    "optional" : true,
    "exampleValue" : null,
    "index" : 0
  }, {
    "name" : "OCEAN",
    "type" : "TEXT",
    "key" : false,
    "optional" : true,
    "exampleValue" : null,
    "index" : 0
  }, {
    "name" : "WSCMDANAME",
    "type" : "TEXT",
    "key" : false,
    "optional" : true,
    "exampleValue" : null,
    "index" : 0
  }, {
    "name" : "WSCSDANAME",
    "type" : "TEXT",
    "key" : false,
    "optional" : true,
    "exampleValue" : null,
    "index" : 0
  }, {
    "name" : "WSCSSDANAM",
    "type" : "TEXT",
    "key" : false,
    "optional" : true,
    "exampleValue" : null,
    "index" : 0
  }, {
    "name" : "Shape_Leng",
    "type" : "NUMBER",
    "key" : false,
    "optional" : true,
    "exampleValue" : null,
    "index" : 0
  }, {
    "name" : "Shape_Area",
    "type" : "NUMBER",
    "key" : false,
    "optional" : true,
    "exampleValue" : null,
    "index" : 0
  } ],
  "spatialExtent" : {
    "east" : -104.41515828619728,
    "west" : -106.17971124795196,
    "north" : 51.66294036163481,
    "south" : 50.64705848613294,
    "gridResolution" : null,
    "gridUnit" : null
  },
  "dependencies" : null,
  "outputs" : null,
  "categorizables" : [ ],
  "exportFormats" : {
    "shp" : "ESRI shapefile"
  }
}